Compute the Pairwise Allele Sharing Matrix for a gen_tibble object — pairwise_allele_sharing • tidypopgen
…
    Value

    a matrix of allele sharing between all pairs of individuals

    See also

    hierfstat::matching()

    Examples

example_gt <- load_example_gt("gen_tbl")

# Compute allele sharing between individuals
example_gt %>% pairwise_allele_sharing(as_matrix = FALSE)
#> # A tibble: 21 × 3
#>    item1 item2 value
#>    <chr> <chr> <dbl>
#>  1 a     b     0.7  
#>  2 a     c     0.6  
#>  3 a     d     0.667
#>  4 a     e     0.583
#>  5 a     f     0.6  
#>  6 a     g     0.5  
#>  7 b     c     0.75 
#>  8 b     d     0.8  
#>  9 b     e     0.5  
#> 10 b     f     0.5  
#> # ℹ 11 more rows
…
