Predict scores of a PCA — predict.gt_pca • tidypopgen
…
# Return a tibble
predict(pca, new_data = new_lobsters, as_matrix = FALSE)
#> # A tibble: 26 × 11
#>    id      .PC1   .PC2    .PC3    .PC4   .PC5   .PC6    .PC7   .PC8   .PC9
#>    <chr>  <dbl>  <dbl>   <dbl>   <dbl>  <dbl>  <dbl>   <dbl>  <dbl>  <dbl>
#>  1 Vig11  0.845 -1.32   0.952   1.95    0.809 -2.49   1.53   -1.51   0.740
#>  2 Vig12 -0.746 -1.19   1.34   -0.726  -0.481  0.306 -0.180  -1.88   0.511
#>  3 Vig13  0.582  0.392  0.996  -0.633  -1.21   1.39  -0.0218  1.28  -0.531
#>  4 Vig14 -2.00  -2.73   2.62   -1.99   -0.341 -0.121 -1.09   -1.78   0.730
#>  5 Vig15  2.27  -0.959  0.0282 -0.501   0.628 -0.648  2.53   -0.810  1.56 
#>  6 Vig16 -1.62   0.156 -0.409   0.112   0.506  1.12   2.01    0.548 -0.952
#>  7 Vig17 -1.11  -3.27  -1.24    2.28   -2.37  -1.54   1.67    0.428 -0.176
#>  8 Vig18  1.05  -6.11  -0.824  -0.0919  0.697 -1.41  -0.366  -1.80   1.03 
#>  9 Vig19 -1.18  -2.77   1.15   -1.20    0.245 -0.337 -0.318  -0.734 -0.225
#> 10 Vig20 -1.13  -2.51   1.30   -1.96   -1.40  -1.72   2.10   -0.180 -0.768
#> # ℹ 16 more rows
#> # ℹ 1 more variable: .PC10 <dbl>
…
