…
# Tidy the PCA object for loadings
tidy(pca, matrix = "loadings")
#> # A tibble: 790 × 3
#>    column    PC    value
#>    <chr>  <int>    <dbl>
#>  1 rs3441     1  0.0464 
#>  2 rs3441     2 -0.00611
#>  3 rs3441     3 -0.0927 
#>  4 rs3441     4  0.131  
#>  5 rs3441     5  0.188  
#>  6 rs3441     6  0.0378 
#>  7 rs3441     7  0.136  
#>  8 rs3441     8  0.0756 
#>  9 rs3441     9 -0.107  
#> 10 rs3441    10 -0.0705 
#> # ℹ 780 more rows

# Tidy the PCA object for scores
tidy(pca, matrix = "scores")
#> # A tibble: 1,760 × 3
#>    row      PC  value
#>    <chr> <int>  <dbl>
#>  1 Ale04     1  3.43 
#>  2 Ale04     2 -2.93 
#>  3 Ale04     3  1.96 
#>  4 Ale04     4  0.103
#>  5 Ale04     5 -1.83 
#>  6 Ale04     6  1.01 
#>  7 Ale04     7 -1.25 
#>  8 Ale04     8  0.212
#>  9 Ale04     9  0.199
#> 10 Ale04    10  1.17 
#> # ℹ 1,750 more rows
```
