Tidy a gt_dapc object — tidy.gt_dapc • tidypopgen
…
# Remove monomorphic loci and impute
lobsters <- lobsters %>% select_loci_if(loci_maf(genotypes) > 0)
lobsters <- gt_impute_simple(lobsters, method = "mode")

# Create PCA and run DAPC
pca <- gt_pca_partialSVD(lobsters)
populations <- as.factor(lobsters$population)
dapc_res <- gt_dapc(pca, n_pca = 6, n_da = 2, pop = populations)

# Tidy scores
tidy(dapc_res, matrix = "scores")
#> # A tibble: 352 × 3
#>    row      LD  value
#>    <chr> <dbl>  <dbl>
#>  1 Ale04     1  3.87 
#>  2 Ale04     2  0.132
#>  3 Ale05     1  3.96 
#>  4 Ale05     2 -0.402
#>  5 Ale06     1  3.25 
#>  6 Ale06     2 -0.801
#>  7 Ale08     1  3.06 
#>  8 Ale08     2  0.398
#>  9 Ale13     1  1.60 
#> 10 Ale13     2  1.05 
#> # ℹ 342 more rows

# Tidy eigenvalues
tidy(dapc_res, matrix = "eigenvalues")
#> # A tibble: 4 × 3
#>      LD eigenvalue cumulative
#>   <int>      <dbl>      <dbl>
#> 1     1    225.          225.
#> 2     2     33.4         259.
#> 3     3      2.29        261.
#> 4     4      0.283       261.

# Tidy loadings
tidy(dapc_res, matrix = "loadings")
#> # A tibble: 158 × 3
#>    column LD       value
#>    <chr>  <chr>    <dbl>
#>  1 rs3441 LD1   -0.00389
#>  2 rs3441 LD2   -0.00831
#>  3 rs4173 LD1   -0.0157 
#>  4 rs4173 LD2    0.0121 
#>  5 rs6157 LD1    0.0122 
#>  6 rs6157 LD2   -0.162  
#>  7 rs7502 LD1    0.163  
#>  8 rs7502 LD2    0.0172 
#>  9 rs7892 LD1    0.0880 
#> 10 rs7892 LD2    0.0206 
#> # ℹ 148 more rows
…
