…
## References

Yi X, et al. (2010) Sequencing of 50 human exomes reveals adaptation to
high altitude. Science 329: 75-78.

## Examples

``` r
example_gt <- load_example_gt()

# We can compute the PBS for all populations using "Hudson" method
example_gt %>%
  group_by(population) %>%
  nwise_pop_pbs(fst_method = "Hudson")
#> # A tibble: 36 × 3
#>    loci  stat_name               value
#>    <chr> <chr>                   <dbl>
#>  1 rs1   pbs_pop1.pop2.pop3   -0.199  
#>  2 rs1   pbs_pop2.pop1.pop3   -0.0164 
#>  3 rs1   pbs_pop3.pop1.pop2    1.12   
#>  4 rs1   pbsn1_pop1.pop2.pop3 -0.105  
#>  5 rs1   pbsn1_pop2.pop1.pop3 -0.00863
#>  6 rs1   pbsn1_pop3.pop1.pop2  0.587  
#>  7 rs2   pbs_pop1.pop2.pop3    0.519  
#>  8 rs2   pbs_pop2.pop1.pop3    0.397  
#>  9 rs2   pbs_pop3.pop1.pop2   -0.397  
#> 10 rs2   pbsn1_pop1.pop2.pop3  0.342  
#> # ℹ 26 more rows
```
