…
## Details

Note that monomorphic sites are currently considered. Remove monomorphic
sites before running pairwise_king if this is a concern.

## Examples

``` r
example_gt <- load_example_gt("gen_tbl")

pairwise_ibs(example_gt, type = "proportion")
#> # A tibble: 21 × 3
#>    item1 item2 value
#>    <chr> <chr> <dbl>
#>  1 a     b     0.8  
#>  2 a     c     0.7  
#>  3 a     d     0.833
#>  4 a     e     0.75 
#>  5 a     f     0.6  
#>  6 a     g     0.7  
#>  7 b     c     0.75 
#>  8 b     d     0.8  
#>  9 b     e     0.5  
#> 10 b     f     0.5  
#> # ℹ 11 more rows
…
# Adjust block_size
pairwise_ibs(example_gt, block_size = 2)
#> # A tibble: 21 × 3
#>    item1 item2 value
#>    <chr> <chr> <dbl>
#>  1 a     b     0.8  
#>  2 a     c     0.7  
#>  3 a     d     0.833
#>  4 a     e     0.75 
#>  5 a     f     0.6  
#>  6 a     g     0.7  
#>  7 b     c     0.75 
#>  8 b     d     0.8  
#>  9 b     e     0.5  
#> 10 b     f     0.5  
#> # ℹ 11 more rows

# Change type
pairwise_ibs(example_gt, type = "adjusted_counts")
#> # A tibble: 21 × 3
#>    item1 item2 value
#>    <chr> <chr> <dbl>
#>  1 a     b       4.8
#>  2 a     c       4.2
#>  3 a     d       5  
#>  4 a     e       4.5
#>  5 a     f       3.6
#>  6 a     g       4.2
#>  7 b     c       4.5
#>  8 b     d       4.8
#>  9 b     e       3  
#> 10 b     f       3  
#> # ℹ 11 more rows
…
