Create a Quality Control report for individuals — qc_report_indiv • tidypopgen
…
    Examples

# Create a gen_tibble of lobster genotypes
bed_file <-
  system.file("extdata", "lobster", "lobster.bed", package = "tidypopgen")
example_gt <- gen_tibble(bed_file,
  backingfile = tempfile("lobsters"),
  quiet = TRUE
)

# Get QC report for individuals
example_gt %>% qc_report_indiv()
#> # A tibble: 176 × 2
#>    het_obs missingness
#>      <dbl>       <dbl>
#>  1  0.0769      0.506 
#>  2  0.429       0.0253
#>  3  0           0.494 
#>  4  0.0930      0.456 
#>  5  0.0222      0.430 
#>  6  0.0833      0.544 
#>  7  0.0476      0.468 
#>  8  0.329       0.114 
#>  9  0.217       0.127 
#> 10  0.0857      0.557 
#> # ℹ 166 more rows

# Get QC report with kinship filtering
example_gt %>% qc_report_indiv(kings_threshold = "first")
#> # A tibble: 176 × 4
#>    het_obs missingness to_keep id   
#>      <dbl>       <dbl> <lgl>   <chr>
#>  1  0.0769      0.506  FALSE   Ale04
#>  2  0.429       0.0253 FALSE   Ale05
#>  3  0           0.494  FALSE   Ale06
#>  4  0.0930      0.456  FALSE   Ale08
#>  5  0.0222      0.430  FALSE   Ale13
#>  6  0.0833      0.544  FALSE   Ale15
#>  7  0.0476      0.468  FALSE   Ale16
#>  8  0.329       0.114  FALSE   Ale17
#>  9  0.217       0.127  FALSE   Ale18
#> 10  0.0857      0.557  FALSE   Ale19
#> # ℹ 166 more rows
…
