…
The `print` function (implicitly called when we type the name of the
object) gives us information about the most important elements in the
object (and the names of the elements in which they are stored).

We can extract those elements with the `tidy` function, which returns a
tibble that can be easily used for further analysis, e.g.:

``` r
tidy(anole_pca, matrix = "eigenvalues")
#> # A tibble: 30 × 4
#>       PC std.dev percent cumulative
#>    <int>   <dbl>   <dbl>      <dbl>
#>  1     1   52.5    45.9        45.9
#>  2     2   28.7    13.7        59.7
#>  3     3   16.9     4.78       64.5
#>  4     4   15.6     4.05       68.5
#>  5     5   13.1     2.85       71.4
#>  6     6   12.4     2.58       73.9
#>  7     7   10.3     1.79       75.7
#>  8     8   10.0     1.68       77.4
#>  9     9    9.23    1.42       78.8
#> 10    10    8.90    1.32       80.2
#> # ℹ 20 more rows
```
…
