Example workflow with tidypopgen • tidypopgen
…
pops_path <- system.file("/extdata/anolis/plot_order_punctatus_n46.csv",
                        package = "tidypopgen")
pops <- readr::read_csv(pops_path)
#> Rows: 46 Columns: 3
#> ── Column specification ────────────────────────────────────────────────────────
#> Delimiter: ","
#> chr (2): ID, pop
#> dbl (1): plot_order
#> 
#> ℹ Use `spec()` to retrieve the full column specification for this data.
#> ℹ Specify the column types or set `show_col_types = FALSE` to quiet this message.
pops
#> # A tibble: 46 × 3
#>    ID           plot_order pop  
#>    <chr>             <dbl> <chr>
#>  1 BM288                18 Eam  
#>  2 GN71                 21 Eam  
#>  3 H1907                 6 Wam  
#>  4 H1911                 4 Wam  
#>  5 H2546                 7 Wam  
#>  6 IBSPCRIB0361         34 AF   
#>  7 ICST764              31 AF   
#>  8 JFT459               37 AF   
#>  9 JFT773               38 AF   
#> 10 LG1299               44 AF   
#> # ℹ 36 more rows
…
The print function (implicitly called when we type the
name of the object) gives us information about the most important
elements in the object (and the names of the elements in which they are
stored).

We can extract those elements with the tidy function,
which returns a tibble that can be easily used for further analysis,
e.g.:

tidy(anole_pca, matrix="eigenvalues")
#> # A tibble: 30 × 3
#>       PC std.dev cumulative
#>    <int>   <dbl>      <dbl>
#>  1     1   51.9        51.9
#>  2     2   28.4        80.3
#>  3     3   16.7        97.0
#>  4     4   15.4       112. 
#>  5     5   12.9       125. 
#>  6     6   12.3       138. 
#>  7     7   10.2       148. 
#>  8     8    9.92      158. 
#>  9     9    9.13      167. 
#> 10    10    8.80      176. 
#> # ℹ 20 more rows
…
